Zeitreihenvorhersage - Sonnenflecke
…
Skalierung und Zentrierung mit Paket recipes

rec_obj <- recipe(value ~ ., df) %>%
    step_sqrt(value) %>%
    step_center(value) %>%
    step_scale(value) %>%
    prep()

df_processed_tbl <- bake(rec_obj, df)

df_processed_tbl

## # A tibble: 1,800 x 3
##    index      key      value
##    <date>     <fct>    <dbl>
##  1 1859-01-01 training 0.728
##  2 1859-02-01 training 0.792
##  3 1859-03-01 training 0.835
##  4 1859-04-01 training 0.761
##  5 1859-05-01 training 0.847
##  6 1859-06-01 training 0.784
##  7 1859-07-01 training 0.913
##  8 1859-08-01 training 1.09 
##  9 1859-09-01 training 1.07 
## 10 1859-10-01 training 1.20 
## #  with 1,790 more rows
…
